{
  "integrationFolder": "tests",
  "fixturesFolder": "core/fixtures",
  "pluginsFile": "core/plugins/index.js",
  "supportFile": "core/support/index.js",
  "screenshotsFolder": "screenshots",
  "videosFolder": "screenshots/videos"
}
